<?xml version="1.0" encoding="UTF-8" standalone="no"?>
<svg width="30px" height="40px" viewBox="0 0 30 40" version="1.1" xmlns="http://www.w3.org/2000/svg" xmlns:xlink="http://www.w3.org/1999/xlink">
    <!-- Generator: Sketch 3.7.2 (28276) - http://www.bohemiancoding.com/sketch -->
    <title>icon-map</title>
    <desc>Created with Sketch.</desc>
    <defs></defs>
    <g id="Web-Page" stroke="none" stroke-width="1" fill="none" fill-rule="evenodd">
        <g id="BDAPRO-Title.Promo" transform="translate(-913.000000, -1774.000000)" fill="#FFFFFF">
            <g id="icon-map" transform="translate(913.000000, 1774.000000)">
                <path d="M14.6530112,0 C6.57373221,0 0,6.60635336 0,14.7265433 C0,16.8446046 0.431378263,18.8668741 1.2815071,20.7376781 C4.94516724,28.7944162 11.9694229,37.3006386 14.0354763,39.7154904 C14.1902674,39.896021 14.4159365,40 14.6534186,40 C14.8909006,40 15.1165697,39.896021 15.2713608,39.7154904 C17.3365995,37.301048 24.3608552,28.795235 28.0257374,20.7376781 C28.8762735,18.8668741 29.3072445,16.8446046 29.3072445,14.7265433 C29.3064298,6.60635336 22.7326976,0 14.6530112,0 L14.6530112,0 Z M14.6530112,22.3755526 C10.4561366,22.3755526 7.04136417,18.9438349 7.04136417,14.7261339 C7.04136417,10.5080236 10.4561366,7.07630588 14.6530112,7.07630588 C18.8498859,7.07630588 22.2646583,10.5080236 22.2646583,14.7261339 C22.2650656,18.9438349 18.8502932,22.3755526 14.6530112,22.3755526 L14.6530112,22.3755526 Z" id="Shape-Copy"></path>
            </g>
        </g>
    </g>
</svg>